Chapter 7 Regression I: K-nearest neighbours | Data Science: A First Introduction
…
7.4 Sacremento real estate example

Let’s start by loading the packages we need and doing some preliminary
exploratory analysis. The Sacramento real estate data set we will study in this chapter
was originally reported in the Sacramento Bee,
but we have provided it with this repository as a stable source for the data.

library(tidyverse)
library(tidymodels)
library(gridExtra)

sacramento <- read_csv("data/sacramento.csv")
sacramento

## # A tibble: 932 x 9
##    city           zip     beds baths  sqft type        price latitude longitude
##    <chr>          <chr>  <dbl> <dbl> <dbl> <chr>       <dbl>    <dbl>     <dbl>
##  1 SACRAMENTO     z95838     2     1   836 Residential 59222     38.6     -121.
##  2 SACRAMENTO     z95823     3     1  1167 Residential 68212     38.5     -121.
##  3 SACRAMENTO     z95815     2     1   796 Residential 68880     38.6     -121.
##  4 SACRAMENTO     z95815     2     1   852 Residential 69307     38.6     -121.
##  5 SACRAMENTO     z95824     2     1   797 Residential 81900     38.5     -121.
##  6 SACRAMENTO     z95841     3     1  1122 Condo       89921     38.7     -121.
##  7 SACRAMENTO     z95842     3     2  1104 Residential 90895     38.7     -121.
##  8 SACRAMENTO     z95820     3     1  1177 Residential 91002     38.5     -121.
##  9 RANCHO_CORDOVA z95670     2     2   941 Condo       94905     38.6     -121.
## 10 RIO_LINDA      z95673     3     2  1146 Residential 98937     38.7     -121.
## # … with 922 more rows
…
gridvals <- tibble(neighbors = seq(1, 200))

sacr_results <- sacr_wkflw %>%
  tune_grid(resamples = sacr_vfold, grid = gridvals) %>%
  collect_metrics()

# show all the results
sacr_results

## # A tibble: 400 x 6
##    neighbors .metric .estimator       mean     n   std_err
##        <int> <chr>   <chr>           <dbl> <int>     <dbl>
##  1         1 rmse    standard   116654.        5 7186.    
##  2         1 rsq     standard        0.372     5    0.0463
##  3         2 rmse    standard   101103.        5 5872.    
##  4         2 rsq     standard        0.453     5    0.0386
##  5         3 rmse    standard    96708.        5 4211.    
##  6         3 rsq     standard        0.483     5    0.0277
##  7         4 rmse    standard    93927.        5 3502.    
##  8         4 rsq     standard        0.503     5    0.0298
##  9         5 rmse    standard    89642.        5 3768.    
## 10         5 rsq     standard        0.543     5    0.0303
## # … with 390 more rows
…
