Chapter 4 Effective data visualization | Data Science: A First Introduction
…
library(tidyverse)

4.5.1 The Mauna Loa CO2 data set

The Mauna Loa CO2 data set, curated by Dr. Pieter Tans, NOAA/GML and Dr. Ralph Keeling, Scripps Institution of Oceanography
records the atmospheric concentration of carbon dioxide (CO2, in parts per million) at the Mauna Loa research station in Hawaii from 1959 onwards.

Question: Does the concentration of atmospheric CO2 change over time, and are there any interesting patterns to note?

# mauna loa carbon dioxide data
co2_df <- read_csv("data/mauna_loa.csv") %>%
  filter(ppm > 0, date_decimal < 2000)
co2_df

## # A tibble: 495 x 4
##     year month date_decimal   ppm
##    <dbl> <dbl>        <dbl> <dbl>
##  1  1958     3        1958.  316.
##  2  1958     4        1958.  317.
##  3  1958     5        1958.  318.
##  4  1958     7        1959.  316.
##  5  1958     8        1959.  315.
##  6  1958     9        1959.  313.
##  7  1958    11        1959.  313.
##  8  1958    12        1959.  315.
##  9  1959     1        1959.  316.
## 10  1959     2        1959.  316.
## # … with 485 more rows
…
Interesting! It seems that each year, the atmospheric CO2 increases until it reaches its peak somewhere around April, decreases until around late September,
and finally increases again until the end of the year. In Hawaii, there are two seasons: summer from May through October, and winter from November through April.
Therefore, the oscillating pattern in CO2 matches up fairly closely with the two seasons.

4.5.2 The island landmass data set

The islands.csv data set contains a list of Earth’s landmasses as well as their area (in thousands of square miles).

Question: Are the continents (North / South America, Africa, Europe, Asia, Australia, Antarctica) Earth’s seven largest landmasses? If so, what are the next few largest landmasses after those?

# islands data
islands_df <- read_csv("data/islands.csv")
islands_df

## # A tibble: 48 x 2
##    landmass      size
##    <chr>        <dbl>
##  1 Africa       11506
##  2 Antarctica    5500
##  3 Asia         16988
##  4 Australia     2968
##  5 Axel Heiberg    16
##  6 Baffin         184
##  7 Banks           23
##  8 Borneo         280
##  9 Britain         84
## 10 Celebes         73
## # … with 38 more rows
…
FIGURE 4.7: Bar plot of size for Earth’s largest 12 landmasses coloured by whether its a continent with clearer axes and labels

This is now a very effective visualization for answering our original questions. Landmasses are organized by their size,
and continents are coloured differently than other landmasses, making it quite clear that continents are the largest seven landmasses.

4.5.3 The Old Faithful eruption/waiting time data set

The faithful data set contains measurements of the waiting time between eruptions and the subsequent eruption duration (in minutes). The faithful data set is available in base R under the name faithful so it does not need to be loaded.

Question: Is there a relationship between the waiting time before an eruption to the duration of the eruption?

# old faithful eruption time / wait time data
faithful

## # A tibble: 272 x 2
##    eruptions waiting
##        <dbl>   <dbl>
##  1      3.6       79
##  2      1.8       54
##  3      3.33      74
##  4      2.28      62
##  5      4.53      85
##  6      2.88      55
##  7      4.7       88
##  8      3.6       85
##  9      1.95      51
## 10      4.35      85
## # … with 262 more rows
…
FIGURE 4.9: Scatter plot of waiting time and eruption time with clearer axes and labels

4.5.4 The Michelson speed of light data set

The morley data set contains measurements of the speed of light (in kilometres per second with 299,000 subtracted) from the year 1879
for five experiments, each with 20 consecutive runs. This data set is available in base R under the name morley so it does not need to be loaded.

Question: Given what we know now about the speed of
light (299,792.458 kilometres per second), how accurate were each of the experiments?

# michelson morley experimental data
morley

## # A tibble: 100 x 3
##     Expt   Run Speed
##    <int> <int> <int>
##  1     1     1   850
##  2     1     2   740
##  3     1     3   900
##  4     1     4  1070
##  5     1     5   930
##  6     1     6   850
##  7     1     7   950
##  8     1     8   980
##  9     1     9   980
## 10     1    10   880
## # … with 90 more rows
…
